%YAML 1.1
%TAG !u! tag:unity3d.com,2011:
--- !u!1001 &100100000
Prefab:
  m_ObjectHideFlags: 1
  serializedVersion: 2
  m_Modification:
    m_TransformParent: {fileID: 0}
    m_Modifications: []
    m_RemovedComponents: []
  m_SourcePrefab: {fileID: 0}
  m_RootGameObject: {fileID: 1408418915768700}
  m_IsPrefabAsset: 1
--- !u!1 &1408418915768700
GameObject:
  m_ObjectHideFlags: 0
  m_CorrespondingSourceObject: {fileID: 0}
  m_PrefabInternal: {fileID: 100100000}
  serializedVersion: 6
  m_Component:
  - component: {fileID: 4146756004307140}
  - component: {fileID: 114323053200775436}
  m_Layer: 0
  m_Name: AudioController
  m_TagString: Untagged
  m_Icon: {fileID: 0}
  m_NavMeshLayer: 0
  m_StaticEditorFlags: 0
  m_IsActive: 1
--- !u!4 &4146756004307140
Transform:
  m_ObjectHideFlags: 1
  m_CorrespondingSourceObject: {fileID: 0}
  m_PrefabInternal: {fileID: 100100000}
  m_GameObject: {fileID: 1408418915768700}
  m_LocalRotation: {x: -0, y: -0, z: -0, w: 1}
  m_LocalPosition: {x: 0, y: 0, z: 0}
  m_LocalScale: {x: 1, y: 1, z: 1}
  m_Children: []
  m_Father: {fileID: 0}
  m_RootOrder: 0
  m_LocalEulerAnglesHint: {x: 0, y: 0, z: 0}
--- !u!114 &114323053200775436
MonoBehaviour:
  m_ObjectHideFlags: 1
  m_CorrespondingSourceObject: {fileID: 0}
  m_PrefabInternal: {fileID: 100100000}
  m_GameObject: {fileID: 1408418915768700}
  m_Enabled: 1
  m_EditorHideFlags: 0
  m_Script: {fileID: 11500000, guid: 6996ee3c84da5c244ad08b6857f77a39, type: 3}
  m_Name: 
  m_EditorClassIdentifier: 
  sounds:
  - audioClipName: ButtonTap
    audioClip: {fileID: 8300000, guid: 2ed3415ec032bf14693bfadd000deba1, type: 3}
    volume: 1
    pitch: 1
    isSound: 1
    isMusic: 0
    isLoop: 0
    audioSource: {fileID: 0}
  - audioClipName: Electric
    audioClip: {fileID: 8300000, guid: 706703f8e40f45e43952e35467b10c9b, type: 3}
    volume: 1
    pitch: 1
    isSound: 1
    isMusic: 0
    isLoop: 0
    audioSource: {fileID: 0}
  - audioClipName: GamePlay
    audioClip: {fileID: 8300000, guid: c1a94bd0aad6f9b458e4578141e62ca3, type: 3}
    volume: 0.5
    pitch: 1
    isSound: 0
    isMusic: 1
    isLoop: 0
    audioSource: {fileID: 0}
  - audioClipName: MenuBg
    audioClip: {fileID: 8300000, guid: 936a7d2b14c01cc4d9aff22b095c6fe2, type: 3}
    volume: 1
    pitch: 1
    isSound: 0
    isMusic: 1
    isLoop: 1
    audioSource: {fileID: 0}
  - audioClipName: Shoot
    audioClip: {fileID: 8300000, guid: e748985c940a1c949a9dcaeb2c108e2a, type: 3}
    volume: 1
    pitch: 1
    isSound: 1
    isMusic: 0
    isLoop: 0
    audioSource: {fileID: 0}
  - audioClipName: GlassBreak1
    audioClip: {fileID: 8300000, guid: e731e42fe609957498e3578d0fcf62f1, type: 3}
    volume: 1
    pitch: 1
    isSound: 1
    isMusic: 0
    isLoop: 0
    audioSource: {fileID: 0}
  - audioClipName: GlassBreak2
    audioClip: {fileID: 8300000, guid: c98b45adb5a91ed42a9f679804a197a1, type: 3}
    volume: 1
    pitch: 1
    isSound: 1
    isMusic: 0
    isLoop: 0
    audioSource: {fileID: 0}
  - audioClipName: Hurt
    audioClip: {fileID: 8300000, guid: b8181e92af9c0124aaf167c7298b6991, type: 3}
    volume: 1
    pitch: 1
    isSound: 1
    isMusic: 0
    isLoop: 0
    audioSource: {fileID: 0}
  - audioClipName: Magic
    audioClip: {fileID: 8300000, guid: e822b70e9646a5d4b9a451325c5b7434, type: 3}
    volume: 1
    pitch: 1
    isSound: 1
    isMusic: 0
    isLoop: 0
    audioSource: {fileID: 0}
  - audioClipName: Flying
    audioClip: {fileID: 8300000, guid: 032df32395ca70f4caa7159b7fef8304, type: 3}
    volume: 1
    pitch: 1
    isSound: 1
    isMusic: 0
    isLoop: 0
    audioSource: {fileID: 0}
  - audioClipName: BubbleTran
    audioClip: {fileID: 8300000, guid: 88b5ce86781ef7945b1a0aaa1a676e0a, type: 3}
    volume: 1
    pitch: 1
    isSound: 1
    isMusic: 0
    isLoop: 0
    audioSource: {fileID: 0}
  - audioClipName: Whee
    audioClip: {fileID: 8300000, guid: de85e5c4ea853b646aa67763e6dc1ba0, type: 3}
    volume: 1
    pitch: 1
    isSound: 1
    isMusic: 0
    isLoop: 0
    audioSource: {fileID: 0}
  - audioClipName: ObsHit
    audioClip: {fileID: 8300000, guid: bfbf2398e56f1444ab9c896fbee278fd, type: 3}
    volume: 0.5
    pitch: 1
    isSound: 1
    isMusic: 0
    isLoop: 0
    audioSource: {fileID: 0}
  MusicOn: {fileID: 0}
  MusicOff: {fileID: 0}
  SoundOn: {fileID: 0}
  SoundOff: {fileID: 0}
